Наименование ;Led/м;Защита;Ватт/м;Цвет;Наличие;Цена;Фото1;Фото1_pr;Фото2;Фото2_pr;кнопка_каталог
Лента светодиодная SMD 3014, 12V, IP20, WW, 5м;120;IP 20;12,0;Теплый белый;в наличии;590;3014_Warm_IP20_1.jpg;3014_Warm_IP20_1_pr.jpg;3014_Warm_IP20_2.jpg;3014_Warm_IP20_2_pr.jpg;Catalog.jpg
Лента светодиодная SMD 3014, 12V, IP20, CW, 5м;120;IP 20;12,0;Холодный белый;в наличии;590;3014_Cold_IP20_1.jpg;3014_Cold_IP20_1_pr.jpg;3014_Cold_IP20_2.jpg;3014_Cold_IP20_2_pr.jpg;Catalog.jpg
Лента светодиодная SMD 3014, 12V, IP65, WW, 5м;120;IP 65;12,0;Теплый белый;в наличии;650;3014_Warm_IP65_1.jpg;3014_Warm_IP65_1_pr.jpg;3014_Warm_IP65_2.jpg;3014_Warm_IP65_2_pr.jpg;Catalog.jpg
Лента светодиодная SMD 3014, 12V, IP65, CW, 5м;120;IP 65;12,0;Холодный белый;в наличии;650;3014_Cold_IP65_1.jpg;3014_Cold_IP65_1_pr.jpg;3014_Cold_IP65_2.jpg;3014_Cold_IP65_2_pr.jpg;Catalog.jpg
Лента светодиодная SMD 3528, 12V,  IP20, WW, 5м;60;IP 20;4,8;Теплый белый;в наличии;250;3528_Warm_IP20_1.jpg;3528_Warm_IP20_1_pr.jpg;3528_Warm_IP20_2.jpg;3528_Warm_IP20_2_pr.jpg;Catalog.jpg
Лента светодиодная SMD 3528, 12V,  IP20, CW, 5м;60;IP 20;4,8;Холодный белый;в наличии;250;3528_Cold_IP20_1.jpg;3528_Cold_IP20_1_pr.jpg;3528_Cold_IP20_2.jpg;3528_Cold_IP20_2_pr.jpg;Catalog.jpg
Лента светодиодная SMD 3528, 12V,  IP65, WW, 5м;60;IP 65;4,8;Теплый белый;в наличии;280;3528_Warm_IP65_1.jpg;3528_Warm_IP65_1_pr.jpg;3528_Warm_IP65_2.jpg;3528_Warm_IP65_2_pr.jpg;Catalog.jpg
Лента светодиодная SMD 3528, 12V,  IP65, CW, 5м;60;IP 65;4,8;Холодный белый;в наличии;280;3528_Cold_IP65_1.jpg;3528_Cold_IP65_1_pr.jpg;3528_Cold_IP65_2.jpg;3528_Cold_IP65_2_pr.jpg;Catalog.jpg
Лента светодиодная SMD 3528, 12V,  IP20, WW, 5м;120;IP 20;9,6;Теплый белый;нет;490;;;;;Catalog.jpg
Лента светодиодная SMD 3528, 12V,  IP20, RGB, 5м;60;IP 20;4,8;RGB;в наличии;250;3528_RGB_IP20_1.jpg;3528_RGB_IP20_1_pr.jpg;3528_RGB_IP20_2.jpg;3528_RGB_IP20_2_pr.jpg;Catalog.jpg
Лента светодиодная SMD 5050, 12V,  IP20, WW, 5м;60;IP 20;14,4;Теплый белый;в наличии;550;5050_Warm_IP20_1.jpg;5050_Warm_IP20_1_pr.jpg;5050_Warm_IP20_2.jpg;5050_Warm_IP20_2_pr.jpg;Catalog.jpg
Лента светодиодная SMD 5050, 12V,  IP20, CW, 5м;60;IP 20;14,4;Холодный белый;в наличии;550;5050_Cold_IP20_1.jpg;5050_Cold_IP20_1_pr.jpg;5050_Cold_IP20_2.jpg;5050_Cold_IP20_2_pr.jpg;Catalog.jpg
Лента светодиодная SMD 5050, 12V,  IP65, WW, 5м;60;IP 65;14,4;Теплый белый;в наличии;590;5050_Warm_IP65_1.jpg;5050_Warm_IP65_1_pr.jpg;5050_Warm_IP65_2.jpg;5050_Warm_IP65_2_pr.jpg;Catalog.jpg
Лента светодиодная SMD 5050, 12V,  IP65, CW, 5м;60;IP 65;14,4;Холодный белый;в наличии;590;5050_Cold_IP65_1.jpg;5050_Cold_IP65_1_pr.jpg;5050_Cold_IP65_2.jpg;5050_Cold_IP65_2_pr.jpg;Catalog.jpg
Лента светодиодная SMD 5050, 12V,  IP65, RGBW, 5м;60;IP 65;14,4;RGBW;в наличии;590;5050_RGBW_IP65_1.jpg;5050_RGBW_IP65_1_pr.jpg;5050_RGBW_IP65_2.jpg;5050_RGBW_IP65_2_pr.jpg;Catalog.jpg
Лента светодиодная SMD 5630, 12V,  IP20, WW, 5м;60;IP 20;12,0;Теплый белый;в наличии;590;5630_Warm_IP20_1.jpg;5630_Warm_IP20_1_pr.jpg;5630_Warm_IP20_2.jpg;5630_Warm_IP20_2_pr.jpg;Catalog.jpg
Лента светодиодная SMD 5630, 12V,  IP20, CW, 5м;60;IP 20;12,0;Холодный белый;в наличии;590;5630_Cold_IP20_1.jpg;5630_Cold_IP20_1_pr.jpg;5630_Cold_IP20_2.jpg;5630_Cold_IP20_2_pr.jpg;Catalog.jpg
Лента светодиодная SMD 5630, 12V,  IP65, WW, 5м;60;IP 65;12,0;Теплый белый;в наличии;650;5630_Warm_IP65_1.jpg;5630_Warm_IP65_1_pr.jpg;5630_Warm_IP65_2.jpg;5630_Warm_IP65_2_pr.jpg;Catalog.jpg
Лента светодиодная SMD 5630, 12V,  IP65, CW, 5м;60;IP 65;12,0;Холодный белый;в наличии;650;5630_Cold_IP65_1.jpg;5630_Cold_IP65_1_pr.jpg;5630_Cold_IP65_2.jpg;5630_Cold_IP65_2_pr.jpg;Catalog.jpg
